TryingStuffWithSpotifyData
…
#a <- x %>% 
#    with_tz(TimeofDay, "America/New_York")

#Trying to Visualize Minutes Listened by Time of Day
y <- x %>% 
  group_by(TimeofDay) %>% 
  mutate(totalMinutes = sum(MinutesListened))

y

## # A tibble: 36,555 x 13
## # Groups:   TimeofDay [1,439]
##    Artist Time  Milliseconds SongTitle SecondsListened MinutesListened
##    <chr>  <chr>        <dbl> <chr>               <dbl>           <dbl>
##  1 Post  1/5/       163050 Psycho (          163.             2.72 
##  2 Post  1/6/       221440 Psycho (          221.             3.69 
##  3 Drake, 1/6/       198973 God's Pl          199.             3.32 
##  4 Juice 1/6/       169999 Armed An          170.             2.83 
##  5 Juice 1/6/       239835 Lucid Dr          240.             4.00 
##  6 Cardi 1/6/         6386 Money,               6.39           0.106
##  7 Arian 1/6/       166579 imagine,           167.             2.78 
##  8 Lil B 1/6/       145542 Drip Too          146.             2.43 
##  9 Kodak 1/6/        48363 ZEZE,               48.4            0.806
## 10 Ellie 1/6/       182623 Close To          183.             3.04 
## #  with 36,545 more rows, and 7 more variables: SimpleDate <chr>,
## #   TimeofDay <time>, DayoftheWeek <dbl>, TimeoftheDay <time>, Month <dbl>,
## #   Date <date>, totalMinutes <dbl>
…
#Trying to Visualize Minutes Listened by Time of Day, filtering for just EST
z <- x %>% 
  group_by(TimeofDay) %>% 
  filter(Date >= "2019-09-01" & Date <= "2019-12-01") %>% 
  mutate(totalMinutesFilter = sum(MinutesListened))

z

## # A tibble: 12,006 x 13
## # Groups:   TimeofDay [1,310]
##    Artist Time  Milliseconds SongTitle SecondsListened MinutesListened
##    <chr>  <chr>        <dbl> <chr>               <dbl>           <dbl>
##  1 Post  9/1/       214906 Circles,           215.            3.58  
##  2 Arian 9/1/       186106 boyfrien          186.            3.10  
##  3 Bazzi, 9/1/       165714 I.F.L.Y.,          166.            2.76  
##  4 Ed Sh 9/1/       127409 I Don't           127.            2.12  
##  5 benny 9/1/       177847 Graduati          178.            2.96  
##  6 Pusha 9/1/        43050 Coming H           43.0           0.718 
##  7 Tones 9/1/         4522 The Kids            4.52          0.0754
##  8 Lil T 9/1/       109373 Shots,             109.            1.82  
##  9 Lana  9/1/         1834 Norman f            1.83          0.0306
## 10 EARTH 9/1/        56270 UP,                 56.3           0.938 
## #  with 11,996 more rows, and 7 more variables: SimpleDate <chr>,
## #   TimeofDay <time>, DayoftheWeek <dbl>, TimeoftheDay <time>, Month <dbl>,
## #   Date <date>, totalMinutesFilter <dbl>
…
#Trying to Visualize Minutes Listened by Day of the Year
d <- x %>% 
  group_by(Date) %>% 
  mutate(DayMinutes = sum(MinutesListened))

d

## # A tibble: 36,555 x 13
## # Groups:   Date [364]
##    Artist Time  Milliseconds SongTitle SecondsListened MinutesListened
##    <chr>  <chr>        <dbl> <chr>               <dbl>           <dbl>
##  1 Post  1/5/       163050 Psycho (          163.             2.72 
##  2 Post  1/6/       221440 Psycho (          221.             3.69 
##  3 Drake, 1/6/       198973 God's Pl          199.             3.32 
##  4 Juice 1/6/       169999 Armed An          170.             2.83 
##  5 Juice 1/6/       239835 Lucid Dr          240.             4.00 
##  6 Cardi 1/6/         6386 Money,               6.39           0.106
##  7 Arian 1/6/       166579 imagine,           167.             2.78 
##  8 Lil B 1/6/       145542 Drip Too          146.             2.43 
##  9 Kodak 1/6/        48363 ZEZE,               48.4            0.806
## 10 Ellie 1/6/       182623 Close To          183.             3.04 
## #  with 36,545 more rows, and 7 more variables: SimpleDate <chr>,
## #   TimeofDay <time>, DayoftheWeek <dbl>, TimeoftheDay <time>, Month <dbl>,
## #   Date <date>, DayMinutes <dbl>
…
